DesignAssignment/MUX21/simulation/qsim/Multi21.msim.vcd
$comment
	File created using the following command:
		vcd file Multi21.msim.vcd -direction
$end
$date
	Fri Apr 04 15:45:49 2025
$end
$version
	ModelSim Version 10.1d
$end
$timescale
	1ps
$end
$scope module Multi21_vlg_vec_tst $end
$var reg 1 ! I0 $end
$var reg 1 " I1 $end
$var reg 1 # pin_name1 $end
$var wire 1 $ Y $end
$var wire 1 % sampler $end
$scope module i1 $end
$var wire 1 & gnd $end
$var wire 1 ' vcc $end
$var wire 1 ( unknown $end
$var tri1 1 ) devclrn $end
$var tri1 1 * devpor $end
$var tri1 1 + devoe $end
$var wire 1 , Y~output_o $end
$var wire 1 - I1~input_o $end
$var wire 1 . pin_name1~input_o $end
$var wire 1 / I0~input_o $end
$var wire 1 0 inst4~0_combout $end
$upscope $end
$upscope $end
$enddefinitions $end
#0
$dumpvars
0!
0"
0#
0$
x%
0&
1'
x(
1)
1*
1+
0,
0-
0.
0/
00
$end
#2000
1!
1/
0%
10
1,
1$
#3000
1"
1-
1%
#4000
0!
0/
0%
00
0,
0$
#6000
0"
1!
0-
1/
1%
10
1,
1$
#8000
0!
0/
0%
00
0,
0$
#9000
1"
1-
1%
#10000
1#
1!
1.
1/
0%
10
1,
1$
#12000
0"
0!
0-
0/
1%
00
0,
0$
#14000
1!
1/
0%
#15000
1"
1-
1%
10
1,
1$
#16000
0!
0/
0%
#18000
0"
1!
0-
1/
1%
00
0,
0$
