DesignAssignment/ALU/simulation/qsim/ALU.msim.vcd
$comment
	File created using the following command:
		vcd file ALU.msim.vcd -direction
$end
$date
	Tue May 13 00:10:39 2025
$end
$version
	ModelSim Version 10.1d
$end
$timescale
	1ps
$end
$scope module ALU_vlg_vec_tst $end
$var reg 4 ! A [3:0] $end
$var reg 4 " B [3:0] $end
$var reg 4 # S [3:0] $end
$var wire 1 $ C $end
$var wire 1 % F [3] $end
$var wire 1 & F [2] $end
$var wire 1 ' F [1] $end
$var wire 1 ( F [0] $end
$var wire 1 ) N $end
$var wire 1 * V $end
$var wire 1 + Z $end
$var wire 1 , sampler $end
$scope module i1 $end
$var wire 1 - gnd $end
$var wire 1 . vcc $end
$var wire 1 / unknown $end
$var tri1 1 0 devclrn $end
$var tri1 1 1 devpor $end
$var tri1 1 2 devoe $end
$var wire 1 3 Z~output_o $end
$var wire 1 4 F[3]~output_o $end
$var wire 1 5 F[2]~output_o $end
$var wire 1 6 F[1]~output_o $end
$var wire 1 7 F[0]~output_o $end
$var wire 1 8 C~output_o $end
$var wire 1 9 V~output_o $end
$var wire 1 : N~output_o $end
$var wire 1 ; S[3]~input_o $end
$var wire 1 < S[1]~input_o $end
$var wire 1 = A[1]~input_o $end
$var wire 1 > A[3]~input_o $end
$var wire 1 ? S[0]~input_o $end
$var wire 1 @ inst4|inst9~0_combout $end
$var wire 1 A A[2]~input_o $end
$var wire 1 B inst4|inst9~2_combout $end
$var wire 1 C B[2]~input_o $end
$var wire 1 D inst7|inst8|inst4~0_combout $end
$var wire 1 E B[0]~input_o $end
$var wire 1 F A[0]~input_o $end
$var wire 1 G inst|inst|inst28~0_combout $end
$var wire 1 H B[1]~input_o $end
$var wire 1 I inst|inst|inst5~combout $end
$var wire 1 J inst|inst|inst8~0_combout $end
$var wire 1 K inst|inst|inst23~0_combout $end
$var wire 1 L inst|inst|inst21~0_combout $end
$var wire 1 M inst|inst|inst11~combout $end
$var wire 1 N S[2]~input_o $end
$var wire 1 O inst4|inst9~1_combout $end
$var wire 1 P inst4|inst9~3_combout $end
$var wire 1 Q inst4|inst4~0_combout $end
$var wire 1 R inst|inst|inst1~0_combout $end
$var wire 1 S inst7|inst18|inst4~0_combout $end
$var wire 1 T inst4|inst4~1_combout $end
$var wire 1 U B[3]~input_o $end
$var wire 1 V inst|inst|inst18~combout $end
$var wire 1 W inst|inst|inst15~combout $end
$var wire 1 X inst|inst5~combout $end
$var wire 1 Y inst|inst|inst12~0_combout $end
$var wire 1 Z inst|inst|inst10~combout $end
$var wire 1 [ inst|inst|inst22~0_combout $end
$var wire 1 \ inst|inst|inst12~1_combout $end
$var wire 1 ] inst4|inst4~2_combout $end
$var wire 1 ^ inst4|inst4~3_combout $end
$var wire 1 _ inst4|inst4~4_combout $end
$var wire 1 ` inst4|inst12~1_combout $end
$var wire 1 a inst4|inst12~0_combout $end
$var wire 1 b inst4|inst12~2_combout $end
$var wire 1 c inst4|inst12~3_combout $end
$var wire 1 d inst4|inst12~4_combout $end
$var wire 1 e inst4|inst12~5_combout $end
$var wire 1 f inst|inst|inst22~1_combout $end
$var wire 1 g inst4|inst6~6_combout $end
$var wire 1 h inst4|inst12~6_combout $end
$var wire 1 i inst|inst|inst6~combout $end
$var wire 1 j inst4|inst6~2_combout $end
$var wire 1 k inst4|inst6~4_combout $end
$var wire 1 l inst4|inst6~3_combout $end
$var wire 1 m inst4|inst6~5_combout $end
$var wire 1 n inst4|inst6~0_combout $end
$var wire 1 o inst4|inst6~1_combout $end
$var wire 1 p inst4|inst6~7_combout $end
$var wire 1 q inst5|inst1~combout $end
$var wire 1 r inst5|inst8~0_combout $end
$var wire 1 s inst5|inst8~1_combout $end
$var wire 1 t inst5|inst14~0_combout $end
$var wire 1 u inst5|inst15~2_combout $end
$upscope $end
$upscope $end
$enddefinitions $end
#0
$dumpvars
b10 !
b1 "
b0 #
0$
1(
1'
0&
0%
0)
0*
0+
x,
0-
1.
x/
10
11
12
03
04
05
16
17
08
09
0:
0;
0<
1=
0>
0?
1@
0A
0B
0C
0D
1E
0F
0G
0H
1I
0J
0K
0L
0M
0N
0O
0P
0Q
1R
0S
1T
0U
0V
0W
0X
0Y
0Z
0[
0\
1]
1^
1_
0`
0a
0b
0c
0d
0e
0f
1g
0h
1i
0j
0k
0l
0m
0n
0o
1p
0q
0r
0s
0t
0u
$end
#10000
b1 #
1?
0,
1n
1`
0]
1Z
1X
1W
1S
1Q
1M
1J
0I
0@
0^
1f
1Y
1O
1L
0i
1h
1r
1\
0M
14
1%
0h
1P
1s
0p
1^
0O
04
15
18
06
0%
1&
1$
0'
0P
05
0&
#20000
b11 #
b10 #
0?
1<
1,
0^
1]
0Z
0X
0W
1M
0J
1I
1B
1^
0f
0Y
1O
0L
1i
1h
0r
0\
0M
14
1%
1t
0h
1P
1p
1u
0O
19
04
15
16
1:
1*
0%
1&
1'
1)
0s
0t
0u
08
09
0:
0$
0*
0)
0P
05
0&
#30000
b11 #
1?
0,
0n
1b
0`
0]
1Z
1X
1W
0S
0Q
1M
1J
0I
1D
0B
1@
0^
1f
1Y
1O
1L
0i
1h
1r
1\
0M
14
1%
1t
0h
1P
1s
0p
1u
0O
19
04
15
18
06
1:
1*
0%
1&
1$
0'
1)
0t
0u
09
0:
0*
0)
0P
05
0&
#40000
b111 #
b101 #
b100 #
0?
0<
1N
1,
0b
1]
0Z
0X
0W
1M
0J
1I
0D
1j
0g
1c
0T
1O
0c
1^
0f
0Y
0O
0L
1i
1e
0s
0_
1P
0e
0r
0\
0M
08
07
15
0$
0(
1&
1h
0P
14
05
1%
0&
0h
04
0%
1q
13
1+
#50000
b101 #
1?
0,
1n
1`
0]
1Z
1X
1W
1S
1Q
1M
1J
0I
0@
1o
0^
1f
1Y
1T
1L
0i
1r
1\
0M
1p
1_
1^
16
17
1'
1(
0q
03
0+
#60000
b111 #
b110 #
0?
1<
1,
0^
1]
0Z
0X
0W
1M
0J
1I
1B
1^
0f
0Y
0L
1i
0r
0\
0M
#70000
b111 #
1?
0,
0n
1b
0`
0]
1Z
1X
1W
0S
0Q
1M
1J
0I
1D
0B
1@
0o
1c
0^
1f
1Y
0T
1O
1L
0i
1e
1r
1\
0M
0p
0_
1P
06
07
15
0'
0(
1&
1h
14
1%
#80000
b1111 #
b1011 #
b1001 #
b1000 #
0?
0<
0N
1;
1,
1l
0b
1`
1]
0Z
0X
0W
1M
0J
1I
0D
0j
0c
0O
0P
1^
0f
0Y
0L
1i
0e
05
0&
1P
0r
0\
0M
15
1&
0h
04
0%
#90000
b1001 #
1?
0,
1n
0l
1k
0`
0]
1Z
1X
1W
1S
1Q
1M
1J
0I
0@
0^
1f
1Y
1L
0i
1_
0P
1r
1\
0M
17
05
1(
0&
1^
#100000
b1011 #
b1010 #
0?
1<
1,
1b
1`
0^
1]
0Z
0X
0W
1M
0J
1I
1B
1^
0f
0Y
0L
1i
0r
0\
0M
#110000
b1011 #
1?
0,
0n
1l
0k
0b
0`
0]
1Z
1X
1W
0S
0Q
1M
1J
0I
1D
0B
1@
0^
1f
1Y
1L
0i
0_
1P
1r
1\
0M
07
15
0(
1&
#120000
b1111 #
b1101 #
b1100 #
0?
0<
1N
1,
0l
1k
1`
1]
0Z
0X
0W
1M
0J
1I
0D
1j
1T
1O
1^
0f
0Y
0L
1i
0P
0r
0\
0M
05
0&
1_
1q
17
13
1(
1+
0q
03
0+
#130000
b1101 #
1?
0,
1n
0k
0`
0]
1Z
1X
1W
1S
1Q
1M
1J
0I
0@
0^
1f
1Y
1L
0i
1r
1\
0M
0_
1^
07
0(
1q
13
1+
1_
17
1(
0q
03
0+
#140000
b1111 #
b1110 #
0?
1<
1,
1l
1k
1b
1`
0^
1]
0Z
0X
0W
1M
0J
1I
1B
1c
1^
0f
0Y
0L
1i
0_
1P
1e
0r
0\
0M
07
15
0(
1&
1_
17
1(
1h
14
1%
#150000
b1111 #
1?
0,
0n
0k
0b
0`
0]
1Z
1X
1W
0S
0Q
1M
1J
0I
1D
0B
1@
1m
0c
0^
1f
1Y
1L
0i
0P
0e
1r
1\
0M
05
0&
1p
0_
16
07
1'
0(
0h
04
0%
