DesignAssignment/SU/simulation/qsim/ShiftingUnit.msim.vcd
$comment
	File created using the following command:
		vcd file ShiftingUnit.msim.vcd -direction
$end
$date
	Mon May 12 15:32:16 2025
$end
$version
	ModelSim Version 10.1d
$end
$timescale
	1ps
$end
$scope module ShiftingUnit_vlg_vec_tst $end
$var reg 4 ! A [3:0] $end
$var reg 1 " S0 $end
$var reg 1 # S1 $end
$var reg 1 $ S2 $end
$var wire 1 % F [3] $end
$var wire 1 & F [2] $end
$var wire 1 ' F [1] $end
$var wire 1 ( F [0] $end
$var wire 1 ) sampler $end
$scope module i1 $end
$var wire 1 * gnd $end
$var wire 1 + vcc $end
$var wire 1 , unknown $end
$var tri1 1 - devclrn $end
$var tri1 1 . devpor $end
$var tri1 1 / devoe $end
$var wire 1 0 F[3]~output_o $end
$var wire 1 1 F[2]~output_o $end
$var wire 1 2 F[1]~output_o $end
$var wire 1 3 F[0]~output_o $end
$var wire 1 4 S0~input_o $end
$var wire 1 5 S2~input_o $end
$var wire 1 6 S1~input_o $end
$var wire 1 7 inst1|inst3~0_combout $end
$var wire 1 8 A[3]~input_o $end
$var wire 1 9 A[2]~input_o $end
$var wire 1 : inst|inst3~1_combout $end
$var wire 1 ; A[0]~input_o $end
$var wire 1 < inst|inst3~2_combout $end
$var wire 1 = inst|inst3~0_combout $end
$var wire 1 > inst|inst3~3_combout $end
$var wire 1 ? inst3|inst3~2_combout $end
$var wire 1 @ A[1]~input_o $end
$var wire 1 A inst3|inst3~1_combout $end
$var wire 1 B inst3|inst3~0_combout $end
$var wire 1 C inst3|inst3~3_combout $end
$var wire 1 D inst2|inst3~0_combout $end
$var wire 1 E inst2|inst3~1_combout $end
$var wire 1 F inst1|inst3~3_combout $end
$var wire 1 G inst1|inst3~2_combout $end
$var wire 1 H inst1|inst3~1_combout $end
$var wire 1 I inst1|inst3~4_combout $end
$upscope $end
$upscope $end
$enddefinitions $end
#0
$dumpvars
b1010 !
0"
0#
0$
0(
0'
1&
0%
x)
0*
1+
x,
1-
1.
1/
00
11
02
03
04
05
06
07
18
09
0:
0;
0<
0=
0>
0?
1@
1A
0B
1C
0D
0E
1F
0G
0H
0I
$end
#10000
1"
14
0)
1G
1B
1I
13
1(
#20000
1#
0"
16
04
1)
0G
17
1:
1>
10
1%
#30000
1"
14
0)
0B
0:
0>
00
0%
#40000
1$
0#
0"
15
06
04
1)
1G
1B
07
1:
0:
1>
10
1%
0>
00
0%
#50000
1"
14
0)
0G
0B
1?
0I
0C
03
01
0(
0&
#60000
1#
0"
16
04
1)
1H
0?
1I
1C
13
11
1(
1&
#70000
1"
14
0)
0H
1B
1?
1=
0I
1E
0C
1>
03
12
01
10
0(
1'
0&
1%
